…
At time zero, `y` is near zero and at time 100, `y` is at the upper asymptote of 1. Now let's generate a full dataset over the course of two days (48 hours), which is the default timeseries.


```r
df <- gen_gompertz(Mu = 0.1, A = 1, Lag = 5, C = 0, sd = 0)

df
```

```
## # A tibble: 97 x 2
##        t         y
##    <dbl>     <dbl>
##  1   0   0.0000254
##  2   0.5 0.0000974
##  3   1   0.000315 
##  4   1.5 0.000877 
##  5   2   0.00215  
##  6   2.5 0.00469  
##  7   3   0.00926  
##  8   3.5 0.0168   
##  9   4   0.0282   
## 10   4.5 0.0444   
## # … with 87 more rows
```
…
