Fitting Gompertz curves in an example R notebook
…
Fitting Gompertz curves in an example R notebook

Growth Curve FittR: Easy nonlinear curve fitting for experimental biologists

Scott H. Saunders

Last updated: 07 March, 2022

df_gomp <- read_csv("./2021_12_03_gomp_growth_curve_parameter_estimates.csv")
df_spline <- read_csv("./2021_12_03_spline_growth_curve_parameter_estimates.csv")

df_both <- left_join(df_spline, df_gomp, by = c('well', 'term'))
df_both

## # A tibble: 1,500 x 12
##    well  term  estimate.x fit_error_occur estimate.y std.error statistic
##    <chr> <chr>      <dbl> <lgl>                 <dbl>     <dbl>     <dbl>
##  1 A_1_ Lag      -0.0848 FALSE                0       0.195          0  
##  2 A_1_ Mu        0.0974 FALSE                0.0994  0.00116       85.7
##  3 A_1_ A         1.01   FALSE                1.00    0.0174        57.5
##  4 A_1_ Lag       2.03   FALSE                2.07    0.0977        21.2
##  5 A_1_ Mu        0.0998 FALSE                0.0995  0.000971     102. 
##  6 A_1_ A         1.00   FALSE                0.992   0.00679      146. 
##  7 A_1_ Lag       3.98   FALSE                4.12    0.0739        55.8
##  8 A_1_ Mu        0.0996 FALSE                0.101   0.00100      101. 
##  9 A_1_ A         1.01   FALSE                0.993   0.00442      225. 
## 10 A_1_ Lag       6.03   FALSE                5.95    0.0609        97.7
## #  with 1,490 more rows, and 5 more variables: p.value <dbl>,
## #   conf.low <dbl>, conf.high <dbl>, est_error_occured <lgl>,
## #   mu_type <chr>
…
